<svg width="585" height="504" viewBox="0 0 585 504" fill="none" xmlns="http://www.w3.org/2000/svg">
<g clip-path="url(#clip0)">
<path opacity="0.1" d="M533.285 273.484C510.554 312.296 513.651 364.484 522.504 405.491C525.463 419.22 528.907 433.681 525.84 449.204C522.09 468.157 509.488 483.241 496.856 491.974C473.832 507.899 447.896 508.013 429.328 492.274C413.282 478.671 403.016 454.584 386.61 441.73C359.159 420.228 320.675 434.425 287.055 455.771C263.27 470.874 237.054 489.929 215.551 479.913C200.421 472.865 191.304 452.268 187.303 429.729C185.369 418.848 184.308 406.937 179.547 398.714C176.714 393.825 172.754 390.599 168.639 387.971C131.042 363.98 79.1177 385.806 42.946 358.534C18.5141 340.115 5.17508 301.302 1.35965 259.569C-2.45577 217.836 2.22816 173.002 7.86445 128.816C11.8715 97.4292 17.1245 63.7992 32.8654 38.0024C49.5167 10.7122 75.1765 -1.85933 97.2185 0.215925C119.261 2.29118 138.152 17.0099 154.33 35.1115C174.545 57.7474 192.61 86.813 219.21 93.6925C237.329 98.3769 257.341 92.0911 276.759 88.3605C309.217 82.1227 341.082 83.0463 372.714 84.4618C402.998 85.8174 433.455 87.6647 461.481 98.5868C481.313 106.318 496.323 122.962 514.789 133.602C526.81 140.536 540.515 141.16 551.656 150.51C565.384 162.032 577.034 183.588 570.906 211.269C565.078 237.605 545.372 252.882 533.285 273.484Z" fill="#9034D8"/>
<path d="M97.4819 395.847C97.4819 395.847 57.5188 329.564 68.7315 270.09C73.4453 245.126 70.4146 219.3 59.2318 196.496C53.9082 185.685 47.6067 175.386 40.4062 165.727" stroke="#535461" stroke-width="2" stroke-miterlimit="10"/>
<path d="M47.2825 128.21C49.5885 137.015 40.3644 166.728 40.3644 166.728C40.3644 166.728 17.7533 145.382 15.4413 136.577C14.3293 132.349 14.9402 127.852 17.1396 124.075C19.339 120.297 22.9467 117.55 27.1691 116.436C31.3915 115.323 35.8827 115.935 39.6547 118.137C43.4267 120.339 46.1705 123.952 47.2825 128.18V128.21Z" fill="#9034D8"/>
<path d="M86.3833 170.063C83.5442 178.712 59.6693 198.631 59.6693 198.631C59.6693 198.631 52.272 168.408 55.1171 159.759C55.7695 157.675 56.8291 155.741 58.2343 154.071C59.6394 152.4 61.3621 151.026 63.3023 150.028C65.2425 149.03 67.3614 148.428 69.5359 148.257C71.7104 148.086 73.8971 148.35 75.9689 149.033C78.0408 149.716 79.9565 150.804 81.6046 152.235C83.2527 153.665 84.6005 155.41 85.5695 157.366C86.5385 159.323 87.1094 161.453 87.2491 163.633C87.3888 165.813 87.0945 167.998 86.3833 170.063Z" fill="#9034D8"/>
<path d="M107.078 253.703C100.267 259.701 69.6123 264.859 69.6123 264.859C69.6123 264.859 78.465 235.032 85.2753 229.004C88.5562 226.181 92.8152 224.764 97.131 225.061C101.447 225.358 105.472 227.344 108.337 230.591C111.202 233.837 112.675 238.081 112.438 242.407C112.201 246.732 110.273 250.79 107.072 253.703H107.078Z" fill="#9034D8"/>
<path d="M108.509 320.52C102.813 327.615 73.4692 337.853 73.4692 337.853C73.4692 337.853 77.1589 306.952 82.8551 299.863C85.5988 296.482 89.5678 294.326 93.8943 293.867C98.2208 293.407 102.553 294.682 105.944 297.412C109.334 300.142 111.507 304.106 111.988 308.436C112.469 312.766 111.218 317.11 108.509 320.52Z" fill="#9034D8"/>
<path d="M26.6902 209.121C34.6026 213.596 65.6231 212.228 65.6231 212.228C65.6231 212.228 50.7687 184.896 42.8623 180.44C40.9772 179.31 38.8853 178.569 36.7099 178.262C34.5345 177.954 32.3196 178.086 30.1959 178.649C28.0721 179.212 26.0824 180.196 24.3441 181.541C22.6058 182.886 21.154 184.566 20.0743 186.482C18.9947 188.398 18.309 190.511 18.0577 192.697C17.8064 194.882 17.9946 197.096 18.6112 199.208C19.2278 201.319 20.2603 203.286 21.6478 204.992C23.0353 206.697 24.7498 208.108 26.6902 209.139V209.121Z" fill="#9034D8"/>
<path d="M29.3494 287.243C38.2381 289.145 67.4557 278.535 67.4557 278.535C67.4557 278.535 45.1262 256.906 36.2195 254.999C31.9503 254.087 27.494 254.91 23.831 257.288C20.1679 259.666 17.5982 263.403 16.6872 267.678C15.7762 271.954 16.5984 276.416 18.973 280.084C21.3476 283.752 25.0801 286.325 29.3494 287.237V287.243Z" fill="#9034D8"/>
<path d="M42.3411 362.816C50.7806 366.193 81.3699 360.681 81.3699 360.681C81.3699 360.681 62.9995 335.58 54.5601 332.203C50.5471 330.761 46.1318 330.934 42.2438 332.686C38.3558 334.439 35.2986 337.633 33.7158 341.598C32.133 345.562 32.1481 349.987 33.7581 353.94C35.3681 357.893 38.4472 361.067 42.3471 362.792L42.3411 362.816Z" fill="#9034D8"/>
<path d="M47.2825 128.21C49.5885 137.015 40.3644 166.728 40.3644 166.728C40.3644 166.728 17.7533 145.382 15.4413 136.577C14.3293 132.349 14.9402 127.852 17.1396 124.075C19.339 120.297 22.9467 117.55 27.1691 116.436C31.3915 115.323 35.8827 115.935 39.6547 118.137C43.4267 120.339 46.1705 123.952 47.2825 128.18V128.21Z" fill="#9034D8"/>
<path d="M86.3833 170.063C83.5442 178.712 59.6693 198.631 59.6693 198.631C59.6693 198.631 52.272 168.408 55.1171 159.759C55.7695 157.675 56.8291 155.741 58.2343 154.071C59.6394 152.4 61.3621 151.026 63.3023 150.028C65.2425 149.03 67.3614 148.428 69.5359 148.257C71.7104 148.086 73.8971 148.35 75.9689 149.033C78.0408 149.716 79.9565 150.804 81.6046 152.235C83.2527 153.665 84.6005 155.41 85.5695 157.366C86.5385 159.323 87.1094 161.453 87.2491 163.633C87.3888 165.813 87.0945 167.998 86.3833 170.063Z" fill="#9034D8"/>
<path d="M107.078 253.703C100.267 259.701 69.6123 264.859 69.6123 264.859C69.6123 264.859 78.465 235.032 85.2753 229.004C88.5562 226.181 92.8152 224.764 97.131 225.061C101.447 225.358 105.472 227.344 108.337 230.591C111.202 233.837 112.675 238.081 112.438 242.407C112.201 246.732 110.273 250.79 107.072 253.703H107.078Z" fill="#FC6681"/>
<path d="M108.509 320.52C102.813 327.615 73.4692 337.853 73.4692 337.853C73.4692 337.853 77.1589 306.952 82.8551 299.863C85.5988 296.482 89.5678 294.326 93.8943 293.867C98.2208 293.407 102.553 294.682 105.944 297.412C109.334 300.142 111.507 304.106 111.988 308.436C112.469 312.766 111.218 317.11 108.509 320.52Z" fill="#FC6681"/>
<path d="M26.6902 209.121C34.6026 213.596 65.6231 212.228 65.6231 212.228C65.6231 212.228 50.7687 184.896 42.8623 180.44C40.9772 179.31 38.8853 178.569 36.7099 178.262C34.5345 177.954 32.3196 178.086 30.1959 178.649C28.0721 179.212 26.0824 180.196 24.3441 181.541C22.6058 182.886 21.154 184.566 20.0743 186.482C18.9947 188.398 18.309 190.511 18.0577 192.697C17.8064 194.882 17.9946 197.096 18.6112 199.208C19.2278 201.319 20.2603 203.286 21.6478 204.992C23.0353 206.697 24.7498 208.108 26.6902 209.139V209.121Z" fill="#9034D8"/>
<path d="M29.3494 287.243C38.2381 289.145 67.4557 278.535 67.4557 278.535C67.4557 278.535 45.1262 256.906 36.2195 254.999C31.9503 254.087 27.494 254.91 23.831 257.288C20.1679 259.666 17.5982 263.403 16.6872 267.678C15.7762 271.954 16.5984 276.416 18.973 280.084C21.3476 283.752 25.0801 286.325 29.3494 287.237V287.243Z" fill="#9034D8"/>
<path d="M42.3411 362.816C50.7806 366.193 81.3699 360.681 81.3699 360.681C81.3699 360.681 62.9995 335.58 54.5601 332.203C50.5471 330.761 46.1318 330.934 42.2438 332.686C38.3558 334.439 35.2986 337.633 33.7158 341.598C32.133 345.562 32.1481 349.987 33.7581 353.94C35.3681 357.893 38.4472 361.067 42.3471 362.792L42.3411 362.816Z" fill="#9034D8"/>
<path opacity="0.1" d="M297.196 423.197C456.146 423.197 585 414.335 585 403.404C585 392.473 456.146 383.611 297.196 383.611C138.246 383.611 9.3916 392.473 9.3916 403.404C9.3916 414.335 138.246 423.197 297.196 423.197Z" fill="#9034D8"/>
<path d="M544.851 386.448C544.851 386.448 544.372 385.806 543.707 385.087L543.899 385.021C543.899 385.021 535.346 363.614 537.25 354.575C539.155 345.537 529.649 323.656 529.649 323.656C529.649 323.656 515.628 294.903 522.264 271.955C523.022 269.252 523.594 266.501 523.977 263.72C525.96 250.129 525.259 247.328 521.935 242.361L521.569 241.828C521.98 241.428 522.304 240.948 522.522 240.418C525.373 232.807 509.225 219.012 513.519 206.164C517.484 194.259 507.164 169.691 505.631 166.159L505.457 165.757L504.942 165.925C505.028 162.857 506.234 159.927 508.332 157.69L508.428 157.594C509.854 156.28 511.585 155.315 512.92 153.905L512.998 153.815C513.13 153.689 513.268 153.563 513.393 153.431C514.717 152.04 515.622 149.976 514.903 148.189C514.25 146.558 512.417 145.562 511.986 143.859C511.882 143.093 511.818 142.322 511.794 141.549C511.447 139.15 509.117 137.645 507.002 136.457C504.373 134.97 501.612 133.458 498.575 133.422C494.466 133.422 490.788 136.181 486.709 136.523C485.32 136.643 483.876 136.475 482.559 136.937C481.554 137.356 480.632 137.949 479.833 138.688C479.364 139.058 478.92 139.459 478.504 139.888C477.581 140.752 476.796 141.771 476.832 142.995C476.899 143.888 477.317 144.719 477.994 145.304C476.68 147.095 475.772 149.152 475.337 151.332C474.901 153.511 474.947 155.759 475.471 157.919C475.996 160.079 476.986 162.097 478.373 163.833C479.76 165.568 481.51 166.978 483.499 167.964C483.547 168.294 483.595 168.63 483.643 168.984C484.242 173.488 484.595 179.858 482.996 184.848C476.174 188.369 465.542 194.109 463.637 196.658C463.489 196.873 463.39 197.119 463.347 197.377C463.303 197.635 463.317 197.899 463.386 198.151C463.332 198.385 463.319 198.627 463.35 198.865C461.858 199.207 459.876 198.865 457.462 196.658C451.76 191.428 433.713 175.725 433.713 175.725C433.713 175.725 425.639 155.746 419.936 159.531C414.234 163.316 426.585 181.891 426.585 181.891L453.622 210.921C453.622 210.921 454.575 217.104 464.548 213.776C467.842 212.678 470.819 211.628 473.334 210.723L473.933 211.233C471.687 224.392 470.525 241.93 478.809 247.076C479.458 247.937 479.926 248.92 480.187 249.967C480.145 250.123 480.103 250.285 480.067 250.441C479.432 253.067 479.031 255.744 478.869 258.442C477.307 262.017 476.588 265.904 476.767 269.802L473.592 315.092C473.592 315.092 473.119 325.078 476.443 332.689C479.767 340.301 490.219 378.357 483.092 381.212L483.768 381.302C481.726 383.407 478.288 386.598 475.67 387.228C471.693 388.175 472.807 394.281 481.624 395.301C490.441 396.32 491.501 396.237 497.7 391.06C503.163 386.502 504.032 384.463 504.157 384.025L504.469 384.067C504.469 384.067 501.145 371.699 504.469 366.469C507.793 361.239 496.874 329.372 496.874 329.372C496.782 325.301 496.932 321.227 497.323 317.173C499 321.569 500.198 324.616 500.198 324.616C500.198 324.616 503.049 338.411 506.374 340.81C509.698 343.209 527.278 376.012 524.426 390.281L524.097 391.942L524.9 391.708H524.971C523.875 394.425 521.881 398.72 519.677 400.297C516.352 402.696 519.677 407.908 528.23 405.527C536.783 403.146 537.729 402.672 541.533 395.541C545.336 388.409 544.851 386.448 544.851 386.448Z" fill="url(#paint0_linear)"/>
<path d="M481.9 259.437L479.815 256.864C477.684 260.831 476.667 265.302 476.874 269.802L473.772 314.084C473.772 314.084 473.305 323.848 476.557 331.292C479.809 338.735 490.028 375.94 483.062 378.729L503.936 381.554C503.936 381.554 500.683 369.462 503.936 364.346C507.188 359.23 496.503 328.071 496.503 328.071C496.503 328.071 495.574 302.028 504.397 295.976C513.22 289.924 481.9 259.437 481.9 259.437Z" fill="#555388"/>
<path d="M485.422 376.983C485.422 376.983 479.69 383.689 475.808 384.619C471.927 385.548 473.011 391.51 481.63 392.512C490.25 393.513 491.286 393.429 497.353 388.367C503.421 383.305 503.69 381.404 503.69 381.404C503.69 381.404 502.492 376.905 501.043 376.809C499.593 376.713 485.422 376.983 485.422 376.983Z" fill="#603556"/>
<path opacity="0.1" d="M483.295 260.835L479.821 256.864C477.689 260.831 476.673 265.302 476.88 269.802L473.778 314.084C473.778 314.084 473.31 323.848 476.563 331.292C479.815 338.735 490.034 375.94 483.068 378.729L503.936 381.554C503.936 381.554 500.683 369.462 503.936 364.346C507.188 359.23 496.502 328.071 496.502 328.071C496.502 328.071 495.574 302.028 504.397 295.976C513.22 289.924 483.295 260.835 483.295 260.835Z" fill="black"/>
<path d="M503.972 321.527C503.972 321.527 498.168 207.442 474.341 167.064C474.341 167.064 456.869 135.108 442.266 125.787V122.104C418.439 105.586 389.12 122.104 389.12 122.104V123.736L383.01 128.834L355.5 128.738C354.255 127.235 352.694 126.026 350.929 125.197C349.163 124.367 347.237 123.938 345.287 123.94H219.755C217.921 123.938 216.105 124.317 214.425 125.054C212.744 125.792 211.235 126.87 209.992 128.222H181.421C181.421 128.222 179.738 126.261 175.312 124.288V122.104C151.485 105.586 122.166 122.104 122.166 122.104V126.537C121.469 126.997 120.85 127.566 120.333 128.222C120.333 128.222 96.2004 144.416 90.7018 164.617C90.7018 164.617 61.0709 253.625 60.4599 323.363C59.849 393.1 86.7307 402.888 100.776 404.723C114.822 406.559 139.871 404.124 164.309 342.346L174.695 306.257C174.695 306.257 176.528 284.844 198.522 298.303C220.516 311.763 240.06 290.962 240.06 290.962H322.538C322.538 290.962 350.001 308.068 375.074 294.585C375.074 294.585 384.849 281.737 394.013 325.174C394.013 325.174 422.117 414.488 465.488 405.311C508.859 396.135 503.972 321.527 503.972 321.527Z" fill="url(#paint1_linear)"/>
<path d="M125.292 131.401V124.803C125.292 124.803 154.042 108.609 177.402 124.803V130.801L125.292 131.401Z" fill="#535461"/>
<path d="M387.041 131.401V124.803C387.041 124.803 415.791 108.609 439.151 124.803V130.801L387.041 131.401Z" fill="#535461"/>
<path opacity="0.1" d="M125.292 131.401V124.803C125.292 124.803 154.042 108.609 177.402 124.803V130.801L125.292 131.401Z" fill="black"/>
<path opacity="0.1" d="M387.041 131.401V124.803C387.041 124.803 415.791 108.609 439.151 124.803V130.801L387.041 131.401Z" fill="black"/>
<path d="M211.543 130.801H183.392C183.392 130.801 176.204 122.404 152.245 123.004C128.287 123.604 123.495 130.801 123.495 130.801C123.495 130.801 99.8358 146.696 94.4451 166.489C94.4451 166.489 65.3951 253.757 64.7962 322.133C64.1972 390.509 90.5518 400.105 104.328 401.904C118.104 403.704 142.662 401.305 166.621 340.726L176.803 305.339C176.803 305.339 178.6 284.346 200.163 297.542C221.726 310.737 240.893 290.344 240.893 290.344H321.753C321.753 290.344 348.707 307.138 373.265 293.943C373.265 293.943 382.848 281.348 391.833 323.932C391.833 323.932 419.385 411.501 461.912 402.504C504.439 393.507 499.647 320.334 499.647 320.334C499.647 320.334 493.957 208.474 470.597 168.888C470.597 168.888 448.136 127.802 433.161 126.003C433.161 126.003 400.817 120.005 388.239 125.403L381.051 131.401L211.543 130.801Z" fill="#535461"/>
<path d="M146.256 241.762C175.036 241.762 198.366 218.399 198.366 189.58C198.366 160.761 175.036 137.399 146.256 137.399C117.477 137.399 94.146 160.761 94.146 189.58C94.146 218.399 117.477 241.762 146.256 241.762Z" fill="#E2E2EC"/>
<path d="M418.187 241.762C446.967 241.762 470.298 218.399 470.298 189.58C470.298 160.761 446.967 137.399 418.187 137.399C389.408 137.399 366.077 160.761 366.077 189.58C366.077 218.399 389.408 241.762 418.187 241.762Z" fill="#E2E2EC"/>
<path d="M155.336 177.944L148.388 184.098C147.8 184.617 147.043 184.903 146.259 184.903C145.475 184.903 144.718 184.617 144.13 184.098L137.17 177.944C136.829 177.644 136.556 177.275 136.368 176.862C136.18 176.448 136.082 176 136.08 175.545V158.613C136.081 157.759 136.421 156.939 137.026 156.335C137.63 155.732 138.448 155.392 139.302 155.392H153.228C153.651 155.392 154.071 155.475 154.462 155.636C154.853 155.798 155.209 156.036 155.508 156.336C155.808 156.636 156.045 156.992 156.207 157.384C156.368 157.775 156.451 158.195 156.45 158.619V175.533C156.447 175.991 156.345 176.443 156.153 176.859C155.961 177.275 155.683 177.645 155.336 177.944Z" fill="#535461"/>
<path d="M155.336 201.21L148.388 195.062C147.8 194.544 147.043 194.258 146.259 194.258C145.475 194.258 144.718 194.544 144.13 195.062L137.17 201.216C136.829 201.516 136.556 201.885 136.368 202.299C136.18 202.712 136.082 203.161 136.08 203.615V220.529C136.079 220.953 136.162 221.373 136.323 221.765C136.485 222.157 136.722 222.513 137.022 222.813C137.321 223.113 137.677 223.35 138.068 223.512C138.459 223.674 138.879 223.757 139.302 223.756H153.228C153.651 223.757 154.07 223.674 154.461 223.513C154.852 223.351 155.207 223.114 155.506 222.815C155.806 222.516 156.043 222.16 156.205 221.769C156.367 221.378 156.45 220.959 156.45 220.535V203.621C156.447 203.163 156.345 202.711 156.153 202.295C155.961 201.88 155.683 201.51 155.336 201.21Z" fill="#535461"/>
<path d="M134.642 198.685L140.787 191.716C141.305 191.126 141.591 190.368 141.591 189.583C141.591 188.798 141.305 188.04 140.787 187.451L134.642 180.482C134.342 180.141 133.973 179.868 133.56 179.68C133.147 179.492 132.7 179.393 132.246 179.39H115.355C114.502 179.392 113.683 179.732 113.08 180.337C112.477 180.942 112.139 181.762 112.139 182.617V196.562C112.138 196.986 112.221 197.406 112.382 197.798C112.544 198.189 112.781 198.546 113.081 198.845C113.38 199.145 113.736 199.383 114.127 199.545C114.518 199.707 114.938 199.789 115.361 199.789H132.252C132.706 199.784 133.153 199.683 133.565 199.493C133.977 199.303 134.344 199.027 134.642 198.685Z" fill="#535461"/>
<path d="M157.876 198.685L151.743 191.71C151.224 191.121 150.937 190.363 150.937 189.577C150.937 188.792 151.224 188.034 151.743 187.445L157.888 180.476C158.188 180.135 158.557 179.861 158.969 179.673C159.382 179.485 159.83 179.386 160.284 179.384H177.175C177.598 179.383 178.018 179.466 178.409 179.628C178.8 179.79 179.156 180.027 179.455 180.327C179.755 180.627 179.992 180.983 180.154 181.375C180.315 181.767 180.398 182.187 180.397 182.611V196.556C180.398 196.979 180.316 197.399 180.154 197.79C179.993 198.182 179.756 198.537 179.457 198.837C179.159 199.137 178.804 199.375 178.413 199.537C178.023 199.699 177.604 199.783 177.181 199.783H160.29C159.833 199.782 159.381 199.684 158.965 199.494C158.549 199.305 158.178 199.029 157.876 198.685Z" fill="#535461"/>
<path d="M137.271 151.194H155.241L146.256 143.397L137.271 151.194Z" stroke="#535461" stroke-width="2" stroke-miterlimit="10"/>
<path d="M137.271 227.967H155.241L146.256 235.764L137.271 227.967Z" stroke="#535461" stroke-width="2" stroke-miterlimit="10"/>
<path d="M107.922 180.583V198.577L100.135 189.58L107.922 180.583Z" stroke="#535461" stroke-width="2" stroke-miterlimit="10"/>
<path d="M184.59 180.583V198.577L192.376 189.58L184.59 180.583Z" stroke="#535461" stroke-width="2" stroke-miterlimit="10"/>
<path d="M216.934 284.346C237.775 284.346 254.669 267.429 254.669 246.56C254.669 225.691 237.775 208.773 216.934 208.773C196.094 208.773 179.199 225.691 179.199 246.56C179.199 267.429 196.094 284.346 216.934 284.346Z" fill="#E2E2EC"/>
<path d="M215.736 265.753C229.63 265.753 240.893 254.475 240.893 240.562C240.893 226.649 229.63 215.371 215.736 215.371C201.843 215.371 190.58 226.649 190.58 240.562C190.58 254.475 201.843 265.753 215.736 265.753Z" fill="#535461"/>
<path d="M347.509 284.346C368.35 284.346 385.244 267.429 385.244 246.56C385.244 225.691 368.35 208.773 347.509 208.773C326.669 208.773 309.774 225.691 309.774 246.56C309.774 267.429 326.669 284.346 347.509 284.346Z" fill="#E2E2EC"/>
<path d="M346.311 265.753C360.205 265.753 371.468 254.475 371.468 240.562C371.468 226.649 360.205 215.371 346.311 215.371C332.417 215.371 321.154 226.649 321.154 240.562C321.154 254.475 332.417 265.753 346.311 265.753Z" fill="#535461"/>
<path opacity="0.1" d="M215.736 257.356C224.999 257.356 232.508 249.837 232.508 240.562C232.508 231.287 224.999 223.768 215.736 223.768C206.474 223.768 198.965 231.287 198.965 240.562C198.965 249.837 206.474 257.356 215.736 257.356Z" stroke="black" stroke-width="2" stroke-miterlimit="10"/>
<path opacity="0.1" d="M346.311 257.356C355.574 257.356 363.082 249.837 363.082 240.562C363.082 231.287 355.574 223.768 346.311 223.768C337.049 223.768 329.54 231.287 329.54 240.562C329.54 249.837 337.049 257.356 346.311 257.356Z" stroke="black" stroke-width="2" stroke-miterlimit="10"/>
<path d="M283.42 261.555C289.374 261.555 294.201 256.721 294.201 250.758C294.201 244.796 289.374 239.962 283.42 239.962C277.465 239.962 272.638 244.796 272.638 250.758C272.638 256.721 277.465 261.555 283.42 261.555Z" fill="#E2E2EC"/>
<path d="M266.942 217.08C268.242 217.08 269.296 216.025 269.296 214.723C269.296 213.421 268.242 212.366 266.942 212.366C265.642 212.366 264.588 213.421 264.588 214.723C264.588 216.025 265.642 217.08 266.942 217.08Z" fill="#E2E2EC"/>
<path d="M275.759 217.08C277.059 217.08 278.113 216.025 278.113 214.723C278.113 213.421 277.059 212.366 275.759 212.366C274.459 212.366 273.405 213.421 273.405 214.723C273.405 216.025 274.459 217.08 275.759 217.08Z" fill="#E2E2EC"/>
<path d="M274.585 228.266C275.885 228.266 276.939 227.211 276.939 225.909C276.939 224.608 275.885 223.552 274.585 223.552C273.285 223.552 272.231 224.608 272.231 225.909C272.231 227.211 273.285 228.266 274.585 228.266Z" fill="#E2E2EC"/>
<path d="M282.821 228.566C284.144 228.566 285.217 227.492 285.217 226.167C285.217 224.842 284.144 223.768 282.821 223.768C281.497 223.768 280.425 224.842 280.425 226.167C280.425 227.492 281.497 228.566 282.821 228.566Z" fill="#E2E2EC"/>
<path d="M291.044 228.266C292.344 228.266 293.398 227.211 293.398 225.909C293.398 224.608 292.344 223.552 291.044 223.552C289.744 223.552 288.69 224.608 288.69 225.909C288.69 227.211 289.744 228.266 291.044 228.266Z" fill="#E2E2EC"/>
<path d="M271.057 222.97C272.357 222.97 273.411 221.915 273.411 220.613C273.411 219.311 272.357 218.256 271.057 218.256C269.757 218.256 268.703 219.311 268.703 220.613C268.703 221.915 269.757 222.97 271.057 222.97Z" fill="#E2E2EC"/>
<path d="M278.628 223.168C279.951 223.168 281.024 222.094 281.024 220.769C281.024 219.444 279.951 218.37 278.628 218.37C277.305 218.37 276.232 219.444 276.232 220.769C276.232 222.094 277.305 223.168 278.628 223.168Z" fill="#E2E2EC"/>
<path d="M286.414 223.168C287.738 223.168 288.81 222.094 288.81 220.769C288.81 219.444 287.738 218.37 286.414 218.37C285.091 218.37 284.019 219.444 284.019 220.769C284.019 222.094 285.091 223.168 286.414 223.168Z" fill="#E2E2EC"/>
<path d="M294.572 222.97C295.872 222.97 296.926 221.915 296.926 220.613C296.926 219.311 295.872 218.256 294.572 218.256C293.272 218.256 292.218 219.311 292.218 220.613C292.218 221.915 293.272 222.97 294.572 222.97Z" fill="#E2E2EC"/>
<path d="M282.821 217.17C284.144 217.17 285.217 216.096 285.217 214.771C285.217 213.446 284.144 212.372 282.821 212.372C281.497 212.372 280.425 213.446 280.425 214.771C280.425 216.096 281.497 217.17 282.821 217.17Z" fill="#E2E2EC"/>
<path d="M291.206 217.17C292.53 217.17 293.602 216.096 293.602 214.771C293.602 213.446 292.53 212.372 291.206 212.372C289.883 212.372 288.811 213.446 288.811 214.771C288.811 216.096 289.883 217.17 291.206 217.17Z" fill="#E2E2EC"/>
<path d="M298.101 217.08C299.401 217.08 300.454 216.025 300.454 214.723C300.454 213.421 299.401 212.366 298.101 212.366C296.8 212.366 295.747 213.421 295.747 214.723C295.747 216.025 296.8 217.08 298.101 217.08Z" fill="#E2E2EC"/>
<path d="M196.869 135H193.874C191.062 135 188.783 137.282 188.783 140.098V152.693C188.783 155.509 191.062 157.792 193.874 157.792H196.869C199.681 157.792 201.96 155.509 201.96 152.693V140.098C201.96 137.282 199.681 135 196.869 135Z" fill="#E2E2EC"/>
<path d="M371.767 135H368.772C365.961 135 363.681 137.282 363.681 140.098V152.693C363.681 155.509 365.961 157.792 368.772 157.792H371.767C374.579 157.792 376.858 155.509 376.858 152.693V140.098C376.858 137.282 374.579 135 371.767 135Z" fill="#E2E2EC"/>
<path d="M418.786 172.186C426.726 172.186 433.162 165.742 433.162 157.792C433.162 149.842 426.726 143.397 418.786 143.397C410.847 143.397 404.411 149.842 404.411 157.792C404.411 165.742 410.847 172.186 418.786 172.186Z" fill="#535461"/>
<path d="M388.239 202.776C396.178 202.776 402.614 196.331 402.614 188.381C402.614 180.431 396.178 173.986 388.239 173.986C380.3 173.986 373.864 180.431 373.864 188.381C373.864 196.331 380.3 202.776 388.239 202.776Z" fill="#535461"/>
<path d="M450.531 200.976C458.471 200.976 464.907 194.531 464.907 186.581C464.907 178.631 458.471 172.187 450.531 172.187C442.592 172.187 436.156 178.631 436.156 186.581C436.156 194.531 442.592 200.976 450.531 200.976Z" fill="#535461"/>
<path d="M421.182 232.765C429.122 232.765 435.558 226.32 435.558 218.37C435.558 210.42 429.122 203.975 421.182 203.975C413.243 203.975 406.807 210.42 406.807 218.37C406.807 226.32 413.243 232.765 421.182 232.765Z" fill="#535461"/>
<path d="M344.065 126.603H220.977C213.782 126.603 207.95 132.443 207.95 139.648V193.329C207.95 200.534 213.782 206.374 220.977 206.374H344.065C351.26 206.374 357.093 200.534 357.093 193.329V139.648C357.093 132.443 351.26 126.603 344.065 126.603Z" fill="#E2E2EC"/>
<path d="M410.101 163.789L418.487 149.395L427.471 163.789H410.101Z" stroke="#E2E2EC" stroke-width="2" stroke-miterlimit="10"/>
<path d="M395.726 181.783H380.752V194.978H395.726V181.783Z" stroke="#E2E2EC" stroke-width="2" stroke-miterlimit="10"/>
<path d="M450.532 194.978C455.163 194.978 458.917 191.219 458.917 186.581C458.917 181.944 455.163 178.184 450.532 178.184C445.9 178.184 442.146 181.944 442.146 186.581C442.146 191.219 445.9 194.978 450.532 194.978Z" stroke="#E2E2EC" stroke-width="2" stroke-miterlimit="10"/>
<path d="M414.294 211.622L427.771 225.118" stroke="#E2E2EC" stroke-width="2" stroke-miterlimit="10"/>
<path d="M428.07 211.622L414.294 224.818" stroke="#E2E2EC" stroke-width="2" stroke-miterlimit="10"/>
<path d="M206.039 398.636C207.836 397.262 209.543 395.637 210.064 393.675C210.331 392.634 210.188 391.529 209.666 390.589C209.143 389.649 208.28 388.946 207.255 388.625C204.673 387.822 201.918 389.279 199.822 390.754C197.725 392.23 195.335 393.915 192.598 393.603C195.431 391.552 196.791 388.205 196 385.206C195.867 384.553 195.537 383.956 195.054 383.497C193.622 382.244 191.023 382.783 189.31 383.767C183.853 386.904 182.332 392.956 182.302 398.408C181.751 396.44 182.218 394.395 182.2 392.374C182.182 390.353 181.511 388.121 179.427 387.036C178.094 386.459 176.65 386.182 175.198 386.226C172.748 386.154 170.011 386.352 168.34 387.822C166.262 389.621 166.801 392.698 168.61 394.701C170.418 396.704 173.174 397.964 175.707 399.349C177.642 400.405 179.595 401.635 180.781 403.302C180.932 403.523 181.059 403.76 181.158 404.01H196.533C199.912 402.619 203.104 400.813 206.039 398.636Z" fill="#9034D8"/>
<path d="M524.864 386.646C524.864 386.646 522.078 395.043 518.826 397.346C515.574 399.649 518.826 404.789 527.211 402.462C535.597 400.135 536.501 399.673 540.215 392.698C543.929 385.722 543.467 383.863 543.467 383.863C543.467 383.863 540.682 380.144 539.275 380.606C537.867 381.068 524.864 386.646 524.864 386.646Z" fill="#603556"/>
<path d="M507.679 177.813C507.679 177.813 470.058 198.739 478.881 192.693C484.811 188.633 484.451 177.854 483.577 171.215C483.301 169.146 482.978 167.478 482.78 166.543C482.666 166.015 482.595 165.721 482.595 165.721C482.595 165.721 500.839 154.757 499.815 161.348C499.815 161.408 499.815 161.468 499.785 161.528C499.697 161.969 499.651 162.417 499.647 162.866C499.521 169.643 507.679 177.813 507.679 177.813Z" fill="#C87486"/>
<path d="M466.8 198.277C466.8 198.277 463.548 203.393 457.977 198.277C452.407 193.161 434.755 177.812 434.755 177.812C434.755 177.812 426.861 158.277 421.278 162.002C415.696 165.727 427.783 183.864 427.783 183.864L454.257 212.234C454.257 212.234 455.186 218.28 464.943 215.023C474.7 211.766 481.666 208.977 481.666 208.977L466.8 198.277Z" fill="#C87486"/>
<path d="M542.515 382.459L523.947 388.973L523.163 389.201L523.486 387.576C526.271 373.625 509.111 341.53 505.835 339.203C502.558 336.876 499.785 323.375 499.785 323.375C499.785 323.375 493.7 292.677 492.771 286.188C492.538 284.562 491.687 283.267 490.657 281.479C489.103 278.771 487.896 275.877 487.063 272.867C485.02 265.669 480.259 252.894 482.008 245.666C482.361 244.197 480.918 247.951 481.409 246.518L481.69 245.726L519.293 240.604C519.917 241.363 520.501 242.153 521.042 242.973C523.887 247.202 523.702 247.202 524.301 255.239C524.042 260.088 523.359 264.905 522.258 269.634C517.197 292.204 528.613 322.415 528.613 322.415C528.613 322.415 537.903 343.809 536.047 352.644C534.19 361.479 542.515 382.459 542.515 382.459Z" fill="#555388"/>
<path opacity="0.1" d="M521.042 242.967C515.478 249.955 479.833 255.383 480.276 253.164C480.41 252.398 480.352 251.611 480.108 250.872C480.463 249.398 480.89 247.943 481.39 246.512L481.672 245.72L519.293 240.604C519.917 241.361 520.5 242.149 521.042 242.967Z" fill="black"/>
<path d="M504.894 168.03C504.894 168.03 489.56 172.696 485.368 183.396C481.175 194.097 488.548 194.678 488.548 194.678C488.548 194.678 475.371 229.466 478.863 247.58C478.863 247.58 480.72 249.907 480.258 252.228C479.797 254.549 518.808 248.509 521.587 241.066C524.366 233.623 508.584 220.139 512.764 207.58C516.945 195.02 504.894 168.03 504.894 168.03Z" fill="#DFE5EE"/>
<path opacity="0.1" d="M499.785 162.464C499.759 162.604 499.713 162.739 499.647 162.866C499.012 164.065 496.994 162.752 497.695 164.551C494.999 167.262 494.149 172.69 490.034 172.69C487.796 172.697 485.586 172.195 483.571 171.221C483.296 169.152 482.972 167.484 482.774 166.549C484.571 165.481 498.947 157.144 499.809 161.354C499.876 161.722 499.868 162.1 499.785 162.464Z" fill="black"/>
<path d="M490.028 171.767C498.235 171.767 504.888 165.104 504.888 156.886C504.888 148.668 498.235 142.005 490.028 142.005C481.821 142.005 475.167 148.668 475.167 156.886C475.167 165.104 481.821 171.767 490.028 171.767Z" fill="#C87486"/>
<path opacity="0.1" d="M504.894 204.323L478.887 216.415C478.887 216.415 461.236 202.932 464.021 199.219C466.806 195.506 488.638 184.824 488.638 184.824C488.638 184.824 510.932 189.442 504.894 204.323Z" fill="black"/>
<path d="M504.894 203.417L478.887 215.509C478.887 215.509 461.235 202.02 464.026 198.301C466.818 194.582 488.644 183.906 488.644 183.906C488.644 183.906 510.932 188.513 504.894 203.417Z" fill="#DFE5EE"/>
<path opacity="0.1" d="M485.739 150.51C483.469 150.282 481.121 150.03 479.151 148.885C478.006 148.225 476.958 147.133 476.922 145.808C476.88 144.248 478.192 143.031 479.396 142.041C480.177 141.319 481.079 140.74 482.061 140.332C483.349 139.882 484.757 140.044 486.117 139.93C490.118 139.594 493.699 136.871 497.719 136.895C500.671 136.895 503.385 138.407 505.954 139.864C508.009 141.028 510.291 142.503 510.632 144.842C510.655 145.597 510.717 146.349 510.818 147.097C511.243 148.765 513.034 149.737 513.675 151.332C514.376 153.077 513.489 155.099 512.196 156.46C510.902 157.822 509.201 158.757 507.841 160.029C506.579 161.2 505.579 162.625 504.906 164.211C504.233 165.797 503.902 167.507 503.936 169.23C503.966 169.457 503.931 169.688 503.834 169.895C503.731 170.02 503.603 170.121 503.459 170.194C503.315 170.266 503.157 170.307 502.995 170.315C501.516 170.591 499.689 170.741 498.803 169.517C497.916 168.294 498.617 166.255 497.605 165.049C496.317 163.496 493.61 164.731 491.867 163.712C491.279 163.33 490.82 162.78 490.549 162.134C489.111 159.033 490.759 156.598 491.357 153.635C492.058 150.174 488.177 150.756 485.739 150.51Z" fill="black"/>
<path d="M486.206 150.036C483.936 149.808 481.588 149.557 479.618 148.411C478.474 147.751 477.426 146.66 477.39 145.334C477.348 143.775 478.659 142.557 479.863 141.567C480.644 140.845 481.547 140.266 482.529 139.858C483.817 139.408 485.224 139.57 486.584 139.456C490.585 139.12 494.167 136.397 498.186 136.421C501.139 136.421 503.852 137.933 506.422 139.39C508.476 140.554 510.758 142.029 511.1 144.368C511.122 145.123 511.184 145.876 511.285 146.624C511.711 148.291 513.501 149.263 514.142 150.858C514.843 152.603 513.957 154.625 512.663 155.986C511.369 157.348 509.668 158.283 508.308 159.555C507.043 160.729 506.039 162.157 505.365 163.748C504.691 165.338 504.361 167.053 504.397 168.78C504.427 169.007 504.392 169.238 504.295 169.445C504.192 169.57 504.065 169.672 503.92 169.744C503.776 169.816 503.618 169.858 503.457 169.865C501.977 170.141 500.15 170.291 499.264 169.068C498.377 167.844 499.078 165.805 498.066 164.599C496.778 163.046 494.071 164.281 492.328 163.262C491.74 162.88 491.281 162.331 491.01 161.684C489.561 158.577 491.214 156.124 491.813 153.131C492.52 149.707 488.638 150.294 486.206 150.036Z" fill="#603456"/>
</g>
<defs>
<linearGradient id="paint0_linear" x1="481.642" y1="406.085" x2="481.642" y2="133.398" gradientUnits="userSpaceOnUse">
<stop stop-color="#808080" stop-opacity="0.25"/>
<stop offset="0.54" stop-color="#808080" stop-opacity="0.12"/>
<stop offset="1" stop-color="#808080" stop-opacity="0.1"/>
</linearGradient>
<linearGradient id="paint1_linear" x1="258717" y1="205927" x2="258717" y2="64527.5" gradientUnits="userSpaceOnUse">
<stop stop-color="#808080" stop-opacity="0.25"/>
<stop offset="0.54" stop-color="#808080" stop-opacity="0.12"/>
<stop offset="1" stop-color="#808080" stop-opacity="0.1"/>
</linearGradient>
<clipPath id="clip0">
<rect width="585" height="504" fill="white"/>
</clipPath>
</defs>
</svg>
