<svg width="651" height="1024" viewBox="0 0 651 1024" fill="none" xmlns="http://www.w3.org/2000/svg">
<rect x="131" width="520" height="1024" fill="#FAF1FF"/>
<path d="M143 0V1024H130L0 0H143Z" fill="#FAF1FF"/>
</svg>
